{
    "datos": {
        "navegador": "'C:/Program Files (x86)/Google/Chrome/Application/chrome.exe' %s",
        "musica": "C:/Users/Diego Martin/Music/",
        "sublime": "'C:/Program Files/Sublime Text 3/sublime_text.exe' %s"
    }
}